{
"version":3,
"file":"sourceMap",
"lineCount":87,
"mappings":"A,OA0BA,W,ICWA,Y,IA8GA,kB,KC7HA,C,GDaA,C,OEZA,iC,ICsBA,4B,ICrCA,Y,ICmBA,U,ICoDA,+I,IAEA,M,IACA,qB,OCzDA,E,CCDA,E,CCHA,K,CDoDA,8EAMA,mBANA,E;AAvCA,qBACA,KACA,SACA,cACA,cACA,KALA,aAOA,IACA,QADA,cAAA,EAEA,MAFA,CAPA,CAAA;AAAA,MAaA,IAEA,OAFA,UAIA,MAJA,CAbA,MAoBA,OApBA,CAAA,C;AAiDA,yBAEA,KAFA,E;AAtBA,cACA,KACA,SAFA,IAGA,QAHA,sBAAA,EAIA,oBAJA,CAAA,C;ADgJA,e;AAsBA,0CAAA,CG9LA,KAAA,EH8LA,EAEA,ORlJA,GAbA,GQ+JA,CR/JA,EYrBA,EZqBA,IQ+JA,CR/JA,Ea7CA,Eb6CA,IQ+JA,CR/JA,Ec1CA,Ed0CA,IQ+JA,CR/JA,EQ+JA,CR/JA,MQ+JA,CR/JA,EQ+JA,CR/JA,GQ+JA,COiKA,IAAA,cPjKA,COiKA,GAAA,QAAA,EAAA,EfnTA,OgBiKA,EAfA,ChB3JA,GQ2JA,CR3JA,EiBnCA,GT8LA,CS9LA,CjBmCA,IQ2JA,CR3JA,Ea6HA,IK0NA,GV5LA,CU4LA,EV5LA,CK9BA,Eb7HA,IQ2JA,CR3JA,EcjCA,CIwXA,GV5LA,CU4LA,EV5LA,CM5LA,WdiCA,IQ2JA,CR3JA,EQ2JA,CR3JA,QQ2JA,CR3JA,EiBvCA,GTkMA,CSlMA,CjBuCA,CmB6GA,EX8CA,CW9CA,EAAA,EX8CA,CW9CA,SA7BA,CX2EA,CWtCA,WArCA,CFvHA,GTkMA,CSlMA,CDkMA,IAAA,CAeA,CACA,chBlKA,CQgJA,CAIA,mBAJA,C;AApJA;CAEA,kBACA,YAHA,C;AAoIA,e;AAjKA,mBAEA,SAFA,CAEA,CAGA,WACA,MAAA,CAyDA,YAAA,KAAA,CAzDA,CAyDA,CAAA,CAAA,CAAA,KAzDA,CANA,UASA,GATA,MAWA,GA6BA,EA7BA,CA6BA,EA7BA,CA6BA,UA7BA,CA4BA,KAIA,KAhCA,CAgCA,CAJA,CA5BA,CAkCA,KAlCA,EACA,MAFA,KAMA,MANA,EAQA,MAlBA,CAAA,IAoBA,QApBA,sBAAA,EAsBA,wBAtBA,CAAA,IAyBA,KAzBA,CAAA,C;AA4HA,cACA,MADA,iBAOA,0BACA,2DADA,CAPA,EAcA,aACA,2BADA,CAdA;AAAA,YAcA,UAdA,CAAA,C;KRpJA,c;AAAA,gBA4CA,gCAIA,wBiBvCA,GjBuCA,IiBvCA,CjBuCA,EAAA,uCoBmQA,eACA,GAAA,GL5CA,MK4CA,EACA,MADA,CAGA,KAJA,C;AAqBA,eACA,MACA,UAFA,C;AAtCA,cATA,KAWA,YACA,YACA,YACA,YACA,YACA,YACA,WARA,C;AApPA,2BAEA,GA+EA,QA/EA,CAiFA,IAjFA,CAAA,CAkFA,IAlFA,CAAA,CAsFA,CAtFA,EACA,QAEA,QALA,C;AAxBA,iBACA,kBACA,0BAFA,C;AA+EA,yBAEA,WAFA,CAIA,UACA,YALA,C;AA0EA,yBAEA,UADA,OAGA,WAHA,EAAA,QAKA,kBALA,GAOA,aAPA,CAAA,CASA,eACA,eAXA,OAeA,UACA,UACA,eACA,0BAEA,0BAEA,iBAtBA,C;AA8BA,iBACA,QACA,uBACA,GADA,CAGA,aALA,qBAMA,oBAEA,QAFA,CAIA,SAVA,CAYA,QAZA,C;AA3DA,iBACA,MADA,cAMA,MAGA,YATA,OAgBA,UAhBA,OAqBA,KArBA,C;AA5IA,MpBNA,CoBMA,QAsBA,yBACA,SACA,MAEA,kCAKA,QATA,EA8RA,kBACA,SACA,aAFA,EAcA,mCAKA,kBACA,SACA,aAFA,EAaA,kBACA,oBADA,EAYA,wCA1GA,MAtPA,S,IpBNA,oB,KoBMA,oB,CnBiJA,cACA,WA7IA,EA6IA,QAWA,QAZA,C;AArCA,gBACA,MACA,CcoJA,MdhJA,KAJA,CAIA,IAJA,CAIA,CANA,C;AAjBA,kCAEA,IACA,OADA,WAFA,CAKA,QALA,C;AAxFA,KDTA,CCSA,KAmFA,kBACA,mBADA,EAdA,2BAIA,EAAA,Mc0KA,Md1KA,MAAA,MW2dA,oBX3dA,IW2dA,MX3dA,GW2dA,CX3dA,CACA,GA8KA,KA9KA,IA8KA,IA9KA,CcyKA,MdMA,UA/KA,CAAA,EAEA,qBAsBA,EApBA,IAoBA,CA7BA,EAjDA,IAlBA,EAkBA,CAHA,S,IAjBA,uB,CoBbA,KpBaA,CoBbA,K,IAAA,uB,CCKA,cACA,IrBmCA,GqBnCA,CrBmCA,CACA,EqBpCA,IrBoCA,EqBpCA,IrBqCA,IqBtCA,C;AALA,KDAA,CCAA,K,IAAA,8B,CCAA,MDAA,CCAA,K,IAAA,0B,CpBCA,MoBDA,EpBCA,K,IAAA,sC,CCsBA,kBAEA,OAFA,C;AAyDA,kBHHA,EGIA,IHJA,EGIA,IHsCA,GGtCA,CHsCA,CGtCA,CW2LA,MdhJA,KG3CA,CH2CA,IG3CA,IH2CA,EG3CA,IHFA,GGEA,CW+KA,MHpFA,WR3FA,CQ2FA,CX7FA,CGEA,IAUA,GAVA,CADA,C;AAzDA,KDtBA,ECsBA,EAAA,CAAA,GFvBA,CEuBA,GHVA,CGUA,OAsGA,wDAtGA,M,IAAA,iC,KepBA,+B,CKqEA,0BAMA,iBANA,CAQA,2BARA,C;AC9DA,MzBNA,CyBMA,K,IAAA,wB,CCJA,kBX8OA,GY2EA,IDtTA,CX2OA,CW9OA,C;AAsRA,kBAEA,oBAEA,KAJA,C;AAgBA,mBAGA,SACA,EE1SA,GF0SA,CACA,aACA,IACA,EAyFA,qBA3FA,CAFA,CASA,WACA,GGnOA,IHmOA,CAAA,GACA,WAFA,CAIA,YAhBA,C;AAxPA,kBACA,kBAEA,2BAEA,KAJA,CADA,C;AA8QA,wBACA,MAEA,IAoBA,eApBA,SA4BA,IA5BA,CAHA,C;AAsCA,cACA,MGnRA,IHoRA,CADA,GAKA,IAEA,MAEA,UACA,KACA,IAFA,CAFA,CARA,C;AA9GA,kBACA,2BACA,OADA,EAAA,CAAA,CADA,C;AAoIA,cACA,oBADA,C;AAIA,aAGA,YAGA,IANA,C;AA5XA,iBGDA,kBAiFA,OAjFA,C;AAoOA,sBACA,QACA,OAEA,GACA,MACA,SACA,QAHA,OAIA,GAJA,EAKA,KARA,CADA,C;AAgBA,sBACA,QACA,OAEA,GACA,MACA,SACA,QAHA,OAIA,GAJA,EAKA,KARA,CADA,C;AApPA,c;AAuHA,gBdgIA,Cc/HA,CAAA,KVpHA,EUoHA,EAGA,CCnEA,CDmEA,CCnEA,OAAA,EDmEA,CCnEA,CDoEA,QALA,C;AAoBA,4BAIA,UAAA,CC9FA,QD8FA,SAGA,EAAA,CC7HA,CD6HA,CC7HA,CD6HA,CAEA,IAEA,CA9GA,CAAA,CAAA,CA8GA,CACA,CA1HA,CAAA,CAAA,CAXA,IAoIA,aAKA,CAvHA,CAAA,CAAA,CAdA,IA8HA,UASA,gB5BrJA,C4BqJA,GATA,CASA,GEHA,ILwFA,KGpFA,CHoFA,CtBhOA,CsBgOA,KGpFA,CHoFA,CtBhOA,CsBgOA,MGpFA,CHoFA,CGrFA,MAAA,WATA,CALA,CAkBA,QAtBA,C;AA3IA,MJKA,EILA,OAAA,M,IAAA,4B,CFCA,0BA6TA,OACA,SACA,WA/TA,C;AAuRA,kBACA,MADA,C;AA8DA,cACA,sCACA,gBACA,2BAHA,C;AAnBA,yCAGA,oDACA,WAJA,CAOA,2BAPA,C;AAlUA,MA4BA,M3B9BA,C2B8BA,K,IAAA,0C,CAWA,c;AAAA,MAXA,EAWA,OAGA,mBACA,SADA,CACA,CACA,SACA,eAGA,8BACA,SACA,OA8RA,GA9RA,CAAA,CA+RA,QA/RA,CA+RA,MAAA,EA/RA,CA+RA,YAAA,CA/RA,EACA,UAKA,YACA,WARA,MAUA,QADA,4BAEA,oBAFA,CATA,CAkBA,uBACA,UAnBA,CAPA,E,IAHA,gD,CA+FA,MA1GA,EA0GA,KAGA,qB,IAHA,gD,CAoHA,e;AAAA,MApHA,EAoHA,Q,IAAA,2D,CKRA,iBACA,OAkBA,GAlBA,CAkBA,CAlBA,CAkBA,CAnBA,C;AA8CA,eACA,OjBoEA,ciBpEA,CjBoEA,CiBpEA,EAAA,CrBxRA,KAAA,EqBuRA,C;AAlLA,uBAEA,CAiKA,GAjKA,CAiKA,CAhKA,CrBnGA,GqBmGA,CrBnGA,CqBoGA,CrB9GA,GAAA,EAAA,CqB+GA,CAkKA,kBAlKA,CAkKA,CAjKA,CAqKA,wBArKA,CAqKA,CApKA,QAPA,C;AjB1FA,2BAEA,cAFA,MAAA,QAIA,eAJA,MAAA,UAMA,cANA,MAAA,UAQA,cARA,CAUA,YAVA,C;AAyBA,iBGgEA,GH/DA,CA4MA,MA5MA,SG+DA,EH9DA,QAFA,C;AA+SA,eACA,QAQA,cARA,CAQA,CARA,EAAA,CJpVA,KAAA,EImVA,C;AAtNA,iBACA,OAAA,CA+HA,MA/HA,SADA,C;AAeA,eACA,2BADA,C;AALA,eACA,0BADA,C;AALA,eACA,0BADA,C;AA8HA,eACA,qBADA,C;AAmDA,eAEA,qDAFA,C;AAxTA,akBJA,qBAIA,QhCGA,CgCHA,GACA,QADA,CAIA,EAAA,CAcA,EAdA,CAcA,CAAA,EAAA,CAdA,CACA,GlB6OA,CkB7OA,CAAA,EACA,WACA,IAFA,CAIA,QAbA,C;AAiBA,eACA,UADA,C;AC3CA,c3B2CA,wB2B3CA,IAAA,C;ACoFA,wBAOA,EC1CA,IAwwCA,WD9tCA,CACA,E9BvFA,aHeA,CGfA,IO0CA,CP1CA,Q8BuFA,CACA,wBACA,eACA,MADA,CADA,CAOA,y0BAhBA,C;A5BtCA,oBAIA,OAEA,OD3BA,EC2BA,KAEA,mBAFA,CANA,C;A8BpBA,eACA,IpCyCA,GoCzCA,CpCyCA,CACA,EoC1CA,IpC0CA,EoC1CA,IpC2CA,IoC5CA,C;AANA,KpCaA,CoCbA,K,IAAA,mB,CCFA,KDEA,CCFA,K,IAAA,4B,C/B0DA,qB+B5BA,Q/B6BA,I+B7BA,I/B6BA,UQuMA,MHpFA,WLnHA,UKmHA,C0BhJA,I/B6BA,U+B7BA,CrCfA,CqCeA,K/B6BA,U+B7BA,CrCfA,CqCeA,U/B4BA,C;AAdA,M+B5CA,C/B4CA,Q,IAAA,uF,CD5DA,cACA,wCACA,wBAFA,cAIA,8BAJA,IAKA,eALA,CAAA,cAOA,yCAPA,IAQA,aARA,CAAA,cAUA,wCAVA,IAWA,YAXA,CAAA,cAaA,wCAbA,IAcA,YAdA,CAAA,cAgBA,oCAhBA,IAiBA,SAjBA,CAkBA,gBAlBA,C;AQwBA,oB;AAAA,IZNA,CYMA,GyBAA,EzBAA,I,IAAA,sB,C0BHA,cACA,iBADA,C;AALA,MlBEA,CkBFA,Q,IAAA,iC,CCQA,MzCFA,CyCEA,EvCNA,CuCMA,K,IAAA,qB,C5BHA,IXHA,CWGA,G0BGA,E1BHA,I,IAAA,qB,C6BHA,MpBAA,CoBAA,K,IAAA,wC,CCIA,M3CAA,C2CAA,KCAA,c3CgCA,E2ChCA,I3CgCA,E2ChCA,I3CiCA,I2CjCA,C;AAFA,MrBFA,EqBEA,QAcA,mBACA,uBADA,E,IAdA,mC,ChCgVA,iBM8IA,GN7IA,CM6IA,CN7IA,CA+IA,OMFA,EN5IA,sBAFA,C;AAuDA,iBAGA,OMDA,GNCA,CMDA,ENCA,KAHA,C;AA9WA,IV3BA,CU2BA,GiCjBA,EjCiBA,G2BrBA,E3BqBA,GAAA,CAAA,I,IAAA,oB,CkCrBA,eJAA,OICA,IJDA,CICA,CJDA,CIAA,C;AANA,MJAA,EIAA,Q,IAAA,8C,CCYA,M/CRA,C+CQA,K7B2YA,eACA,GAAA,CHxJA,MGwJA,EACA,gBADA,CAGA,QAJA,C;AAmFA,iBACA,cACA,0CADA,CADA,C;AAzWA,eACA,OACA,gBADA,CADA,C;A8BzFA,uBAGA,MAHA,Y;AArCA,MhDCA,CgDDA,KCAA,eACA,mBAUA,IAVA,CADA,C;AALA,SCEA,oBAIA,SAQA,QAZA,C;AAuCA,2BACA,IACA,EAAA,CtCybA,OsCzbA,CACA,MACA,IAGA,WACA,GhCibA,GgCjbA,GhCibA,CgCjbA,CtCmbA,OMFA,EgCjbA,CtCqSA,YsCrSA,GtCqSA,CsCrSA,EhCibA,GgChbA,GhCgbA,CgChbA,CtCkbA,OMFA,EgChbA,IAAA,CtCoSA,YsCpSA,GtCoSA,CsCpSA,EhCgbA,GgC/aA,GhC+aA,CgC/aA,CtCibA,OMFA,EgC/aA,IAAA,CtCmSA,YsCnSA,GtCmSA,CsCnSA,EhC+aA,GgC9aA,ChC8aA,CgC9aA,CtCgbA,OMFA,EgC9aA,IAAA,CtCkSA,YsClSA,CtCkSA,CsClSA,MADA,EADA,EADA,CAAA,EAMA,EAAA,CC9CA,ED8CA,CACA,IARA,CAYA,WACA,gBADA,CAGA,EAAA,CCtDA,EDsDA,CAEA,QAxBA,C;AArBA,8BAGA,QAGA,EAAA,EFSA,CETA,CFSA,CETA,CACA,GAAA,CnCmPA,MmCnPA,EACA,OrC+SA,IKkEA,GgCjXA,ChCiXA,EgCjXA,CrC+SA,EqChTA,CAIA,EAAA,EFIA,CEJA,CFIA,CEJA,CACA,EAAA,CnCkOA,MmClOA,OrC2SA,IKkEA,GgC7WA,ChC6WA,EgC7WA,CrC2SA,EqC3SA,CAGA,KACA,EFGA,CEHA,CFGA,EEHA,CFGA,CEDA,QAlBA,C;AAgDA,cACA,YACA,MACA,SACA,IAHA,CAKA,IANA,C;AAlEA,e,QxBiRA,GjBjOA,CiBoOA;",
"sources":["com/google/gwt/emul/java/lang/Object.java","com/google/gwt/emul/java/lang/Throwable.java","com/google/gwt/emul/java/io/Serializable.java","com/google/gwt/core/translatable/com/google/gwt/core/client/impl/JavaScriptExceptionBase.java","com/google/gwt/core/client/JavaScriptException.java","gen/com/google/gwt/user/client/DocumentModeAsserter_DocumentModeProperty.java","gen/com/google/gwt/useragent/client/UserAgentImplGecko1_8.java","com/google/gwt/useragent/client/UserAgentAsserter.java","com/google/gwt/dev/jjs/intrinsic/com/google/gwt/lang/Runtime.java","com/google/gwt/dev/jjs/intrinsic/com/google/gwt/lang/ModuleUtils.java","com/google/gwt/dev/jjs/intrinsic/com/google/gwt/lang/CollapsedPropertyHolder.java","com/google/gwt/dev/jjs/intrinsic/com/google/gwt/lang/Util.java","com/google/gwt/emul/java/lang/String.java","com/google/gwt/emul/java/lang/Double.java","com/google/gwt/emul/java/lang/Boolean.java","com/google/gwt/dev/jjs/intrinsic/com/google/gwt/lang/Cast.java","com/google/gwt/emul/java/lang/Integer.java","com/google/gwt/emul/javaemul/internal/HashCodes.java","com/google/gwt/emul/javaemul/internal/InternalPreconditions.java","com/google/gwt/core/client/JavaScriptObject.java","com/google/gwt/emul/java/lang/Class.java","com/google/gwt/emul/java/lang/Exception.java","com/google/gwt/emul/java/lang/RuntimeException.java","com/google/gwt/emul/java/lang/JsException.java","com/google/gwt/core/client/JsDate.java","com/google/gwt/core/client/Scheduler.java","com/google/gwt/core/client/impl/Impl.java","com/google/gwt/core/client/impl/StackTraceCreator.java","com/google/gwt/core/client/Duration.java","com/google/gwt/core/client/impl/SchedulerImpl.java","com/google/gwt/core/client/JsArray.java","com/google/gwt/core/client/GWT.java","com/google/gwt/dev/jjs/intrinsic/com/google/gwt/lang/Array.java","com/google/gwt/dev/jjs/intrinsic/com/google/gwt/lang/Exceptions.java","gen/com/google/gwt/lang/gwt__sql_00046Gwt__sql__EntryMethodHolder.java","com/google/gwt/user/client/DocumentModeAsserter.java","com/google/gwt/dom/client/Document.java","com/google/gwt/emul/java/lang/Error.java","com/google/gwt/emul/java/lang/AssertionError.java","com/google/gwt/emul/java/lang/Comparable.java","com/google/gwt/emul/java/lang/ClassCastException.java","com/google/gwt/emul/java/lang/Number.java","com/google/gwt/emul/java/lang/IndexOutOfBoundsException.java","com/google/gwt/emul/java/lang/Math.java","com/google/gwt/emul/java/lang/NullPointerException.java","com/google/gwt/emul/java/lang/CharSequence.java","com/google/gwt/emul/java/lang/StringIndexOutOfBoundsException.java","com/google/gwt/emul/java/lang/System.java","com/google/gwt/emul/javaemul/internal/JsUtils.java","com/google/gwt/emul/javaemul/internal/ObjectHashing.java","com/google/gwt/emul/javaemul/internal/StringHashCache.java","com/google/gwt/emul/javaemul/internal/Coercions.java"],
"names":[],
"x_gwt_permutation":0,
"x_gwt_fragment":0
}
