01EA223EF5A7CED288BA977F09861A51.cache.js
user.agent ie9

493AA58890627E512B9B31AD9A1DFA93.cache.js
user.agent ie10

59F389902FA60806A0176F667704B014.cache.js
user.agent safari

88B71475E01EEBFC1A2236870C150F47.cache.js
user.agent ie8

97AAAF3380E7613BF042BD010C3F54A2.cache.js
user.agent gecko1_8

Devmode:devmode.js